{
    "contents": {
        "res": {
            "doc": "documentation",
            "type": "dtk::d_bool",
            "value": false,
            "label": "res"
        },
        "dif": {
            "doc": "documentation",
            "type": "dtk::d_bool",
            "value": false,
            "label": "dif"
        },
        "prec": {
            "type": "dtk::d_real",
            "doc": "documentation",
            "label": "prec",
            "min": -1.0,
            "value": 5.0,
            "max": 7.0,
            "decimals": 5
        },
        "hyp": {
            "min": 0,
            "doc": "documentation",
            "value": 2,
            "label": "hyp",
            "max": 5,
            "type": "dtk::d_int"
        },
        "inf": {
            "doc": "documentation",
            "type": "dtk::d_bool",
            "value": false,
            "label": "inf"
        },
        "wind": {
            "doc": "documentation",
            "type": "dtk::d_bool",
            "value": false,
            "label": "wind"
        },
        "open": {
            "label": "open",
            "doc": "Open a VTK file.",
            "path": ".",
            "filters": [
                "VTK (*.vtk)",
                "VTI (*.vti)",
                "VTU (*.vtu)",
                "VTP (*.vtp)"
            ],
            "type": "dtk::d_path"
        }
    }
}
